<svg xmlns="http://www.w3.org/2000/svg" width="20.986" height="50.279" viewBox="0 0 20.986 50.279">
  <path id="Tracé_47" data-name="Tracé 47" d="M19.986,24.527A24.966,24.966,0,0,0,1.307.29V.284L1.052.224H1.045L.654.133v0C.565.117.478.1.39.079L0,0V1.364l.263.054c.169.034.335.074.5.115l.058.014.088.021A23.349,23.349,0,0,1,18.679,24.527,23.349,23.349,0,0,1,.907,47.487l-.18.043c-.155.037-.309.074-.465.106L0,47.69v1.365l.39-.08c.088-.018.176-.039.263-.058v0l.355-.082.043-.009.256-.059v-.007A24.966,24.966,0,0,0,19.986,24.527" transform="translate(20.486 49.668) rotate(180)" fill="#a5967e" stroke="#a5967e" stroke-width="1"/>
</svg>
