[
  {
    "type": "hero-home",
    "settings": {
      "title": "lorem ipsum dolor sid amet",
      "text": "Indicat Nicator Seleucus longum successorio laeva ut quam fluminis. Indicat Nicator Seleucus longum successorio laeva ut quam fluminis.",
      "cta_url": "#",
      "cta_label": "Découvrir"
    },
    "blocks": [
      {
        "type": "image",
        "image_large": "https://via.placeholder.com/1440x670",
        "image_small": "https://via.placeholder.com/415x670"
      },
      {
        "type": "image",
        "image_large": "https://via.placeholder.com/1440x670",
        "image_small": "https://via.placeholder.com/415x670"
      },
      {
        "type": "iframe",
        "url": "259400046"
      }
    ]
  },
  {
    "type": "reassurances",
    "blocks": [
      {
        "icon": "icon__coursier",
        "text": "Livraison par COURSIER 2h</br>Livraison STANDARD 48h"
      },
      {
        "icon": "icon__echantillon",
        "text": "Échantillon test OFFERT </br>pour toute commande"
      },
      {
        "icon": "icon__livraison",
        "text": "Livraison Europe OFFERTE </br>pour tout achat"
      },
      {
        "icon": "icon__remboursement",
        "text": "REMBOURSEMENTt </br>sous 14 jours si pas </br>satisfait"
      },
      {
        "icon": "icon__service",
        "text": "NOS SERVICES"
      }
    ]
  },
  {
    "type": "push-products",
    "settings": {
      "suptitle": "Parfums",
      "title": "Notre sélection"
    },
    "blocks": [
      {
        "image": "images/product.png",
        "category": "Floral & Fruité",
        "title": "Tabac Noir",
        "type": "Eau de parfum",
        "price": "à partir de 34,00€"
      },
      {
        "image": "images/product.png",
        "category": "Floral & Fruité",
        "title": "Tabac Noir",
        "type": "Eau de parfum",
        "price": "à partir de 34,00€"
      },
      {
        "image": "images/product.png",
        "category": "Floral & Fruité",
        "title": "Tabac Noir",
        "type": "Eau de parfum",
        "price": "à partir de 34,00€"
      },
      {
        "image": "images/product.png",
        "category": "Floral & Fruité",
        "title": "Tabac Noir",
        "type": "Eau de parfum",
        "price": "à partir de 34,00€"
      }
    ]
  },
  {
    "type": "mosaic",
    "settings": {
      "title": "L'univers Caron"
    },
    "blocks": [
      {
        "image": "https://via.placeholder.com/411x411",
        "title": "Les parfums",
        "text": "Indicat Nicator Seleucus longum successorio </br>laeva ut quam fluminis. Indicat Nicator Seleucus",
        "cta_label": "Découvrir",
        "cta_url": "#"
      },
      {
        "image": "https://via.placeholder.com/411x411",
        "title": "Le maquillage",
        "text": "Indicat Nicator Seleucus longum successorio </br>laeva ut quam fluminis. Indicat Nicator Seleucus",
        "cta_label": "Découvrir",
        "cta_url": "#"
      },
      {
        "image": "https://via.placeholder.com/411x411",
        "title": "Les gels parfumés",
        "text": "Indicat Nicator Seleucus longum successorio </br>laeva ut quam fluminis. Indicat Nicator Seleucus",
        "cta_label": "Découvrir",
        "cta_url": "#"
      },
      {
        "image": "https://via.placeholder.com/411x411",
        "title": "L’art du cadeau",
        "text": "Indicat Nicator Seleucus longum successorio </br>laeva ut quam fluminis. Indicat Nicator Seleucus",
        "cta_label": "Découvrir",
        "cta_url": "#"
      }
    ]
  },
  {
    "type": "push-samples",
    "settings": {
      "title": "Composez votre </br>coffret d’échantillons",
      "text": "Indicat Nicator Seleucus longum successorio laeva ut quam </br>fluminis. Indicat Nicator Seleucus longum successorio laeva ut </br>quam fluminis. Indicat Nicator Seleucus longum successorio laeva",
      "image": "placeholder",
      "cta_url": "#",
      "cta_label": "Commencer",
      "large_image": "https://via.placeholder.com/411x411",
      "steps": [
        {
          "text": "Je choisis </br>mes échantillons"
        },
        {
          "text": "Je teste </br>ma sélection"
        },
        {
          "text": "Je profite </br>d’une réduction sur ma prochaine commande"
        }
      ]
    }
  },
  {
    "type": "push-rounded",
    "blocks": [
      {
        "image": "https://via.placeholder.com/250x428",
        "title": "La gravure",
        "text": "Lorem ipsum dolor sit amet, consectetur adipiscing elit, sed.",
        "link": "#",
        "linkText": "découvrir"
      },
      {
        "image": "https://via.placeholder.com/250x428",
        "title": "La personnalisation",
        "text": "Lorem ipsum dolor sit amet, consectetur adipiscing elit, sed.",
        "link": "#",
        "linkText": "découvrir"
      },
      {
        "image": "https://via.placeholder.com/250x428",
        "title": "Les parfums </br>sur-mesure",
        "text": "Lorem ipsum dolor sit amet, consectetur adipiscing elit, sed.",
        "link": "#",
        "linkText": "découvrir"
      }
    ]
  },
  {
    "type": "push-square",
    "settings": {
      "layout": "aligned",
      "suptitle": "parfums",
      "title": "Nos services"
    },
    "blocks":[
      {
        "image": "https://via.placeholder.com/340x340",
        "title": "La gravure",
        "text": "Lorem ipsum dolor sit amet, consectetur </br>adipiscing elit, sed.",
        "cta_url": "#",
        "cta_link": "Découvrir"
      },
      {
        "image": "https://via.placeholder.com/340x340",
        "title": "La personnalisation",
        "text": "Lorem ipsum dolor sit amet, consectetur </br>adipiscing elit, sed.",
        "cta_url": "#",
        "cta_link": "Découvrir"
      },
      {
        "image": "https://via.placeholder.com/340x340",
        "title": "Les parfums </br>sur-mesure",
        "text": "Lorem ipsum dolor sit amet, consectetur </br>adipiscing elit, sed.",
        "cta_url": "#",
        "cta_link": "Découvrir"
      }
    ]
  },
  {
    "type": "push-square",
    "settings": {
      "layout": "aligned two-items",
      "suptitle": "patrimoine",
      "title": "Notre Savoir-faire"
    },
    "blocks":[
      {
        "image": "https://via.placeholder.com/450x450",
        "title": "Les belles matières",
        "text": "Indicat Nicator Seleucus longum successorio laeva ut quam fluminis. Indicat Nicator Seleucus longum successorio laeva ut quam fluminis.",
        "cta_url": "#",
        "cta_link": "Découvrir"
      },
      {
        "image": "https://via.placeholder.com/450x450",
        "title": "Le parfumeur",
        "text": "Indicat Nicator Seleucus longum successorio laeva ut quam fluminis. Indicat Nicator Seleucus longum successorio laeva ut quam fluminis.",
        "cta_url": "#",
        "cta_link": "Découvrir"
      }
    ]
  },
  {
    "type": "push-rounded",
    "settings": {
      "suptitle": "patrimoine",
      "title": "Notre Histoire"
    },
    "blocks": [
      {
        "image": "https://via.placeholder.com/250x428",
        "title": "Amelia Earhart",
        "text": "Lorem ipsum dolor sit amet, consectetur adipiscing elit, sed.",
        "link": "#",
        "linkText": "lire la suite"
      },
      {
        "image": "https://via.placeholder.com/250x428",
        "title": "La création au coeur </br>de la maison",
        "text": "Lorem ipsum dolor sit amet, consectetur adipiscing elit, sed.",
        "link": "#",
        "linkText": "lire la suite"
      },
      {
        "image": "https://via.placeholder.com/250x428",
        "title": "Caron et le cinéma",
        "text": "Lorem ipsum dolor sit amet, consectetur adipiscing elit, sed.",
        "link": "#",
        "linkText": "lire la suite"
      }
    ]
  },
  {
    "type": "push-square",
    "settings": {
      "layout": "offset",
      "suptitle": "patrimoine",
      "title": "Notre Histoire"
    },
    "blocks":[
      {
        "image": "https://via.placeholder.com/340x340",
        "title": "Amelia Earhart",
        "text": "Lorem ipsum dolor sit amet, consectetur adipiscing elit, sed.",
        "cta_url": "#",
        "cta_link": "Découvrir"
      },
      {
        "image": "https://via.placeholder.com/340x340",
        "title": "Caron et le cinéma",
        "text": "Lorem ipsum dolor sit amet, consectetur adipiscing elit, sed.",
        "cta_url": "#",
        "cta_link": "Découvrir"
      },
      {
        "image": "https://via.placeholder.com/340x340",
        "title": "La création au coeur de la maison",
        "text": "Lorem ipsum dolor sit amet, consectetur adipiscing elit, sed.",
        "cta_url": "#",
        "cta_link": "Découvrir"
      }
    ]
  },
  {
    "type": "section-newsletter",
    "settings": {
      "newsletter_image": "https://via.placeholder.com/410x410",
      "title": "Suivez notre actualité",
      "email_placeholder": "Nom@gmail.com",
      "submit": "ok",
      "text": "Indicat Nicator Seleucus longum successorio laeva ut quam fluminis. Indicat Nicator Seleucus longum successorio laeva ut quam fluminis.",
      "newsletter_cgv": "Lorem ipsum dolor sit amet, consectetur adipiscing elit, sed do eiusmod tempor incididunt ut labore et dolore magna aliqua."
    }
  }
]